COVID-19 around the world
…
18 datasets of varying relevance including:

Life expectancy

Smoking and Alcohol Consumption

Body Mass Index and Basic Sanitation

Data loading

data01_raw <- read_csv(file = "data/_raw/01_time_series_covid19_confirmed_global.csv")

data01_raw

## # A tibble: 275 x 468
##    `Province/State`  `Country/Region`   Lat   Long `1/22/20` `1/23/20` `1/24/20`
##    <chr>             <chr>            <dbl>  <dbl>     <dbl>     <dbl>     <dbl>
##  1 <NA>              Afghanistan       33.9  67.7          0         0         0
##  2 <NA>              Albania           41.2  20.2          0         0         0
##  3 <NA>              Algeria           28.0   1.66         0         0         0
##  4 <NA>              Andorra           42.5   1.52         0         0         0
##  5 <NA>              Angola           -11.2  17.9          0         0         0
##  6 <NA>              Antigua and Bar  17.1 -61.8          0         0         0
##  7 <NA>              Argentina        -38.4 -63.6          0         0         0
##  8 <NA>              Armenia           40.1  45.0          0         0         0
##  9 Australian Capit Australia        -35.5 149.           0         0         0
## 10 New South Wales   Australia        -33.9 151.           0         0         0
## #  with 265 more rows, and 461 more variables: 1/25/20 <dbl>, 1/26/20 <dbl>,
## #   1/27/20 <dbl>, 1/28/20 <dbl>, 1/29/20 <dbl>, 1/30/20 <dbl>, 1/31/20 <dbl>,
## #   2/1/20 <dbl>, 2/2/20 <dbl>, 2/3/20 <dbl>, 2/4/20 <dbl>, 2/5/20 <dbl>,
## #   2/6/20 <dbl>, 2/7/20 <dbl>, 2/8/20 <dbl>, 2/9/20 <dbl>, 2/10/20 <dbl>,
## #   2/11/20 <dbl>, 2/12/20 <dbl>, 2/13/20 <dbl>, 2/14/20 <dbl>, 2/15/20 <dbl>,
## #   2/16/20 <dbl>, 2/17/20 <dbl>, 2/18/20 <dbl>, 2/19/20 <dbl>, 2/20/20 <dbl>,
## #   2/21/20 <dbl>, 2/22/20 <dbl>, 2/23/20 <dbl>, 2/24/20 <dbl>, 2/25/20 <dbl>,
## #   2/26/20 <dbl>, 2/27/20 <dbl>, 2/28/20 <dbl>, 2/29/20 <dbl>, 3/1/20 <dbl>,
## #   3/2/20 <dbl>, 3/3/20 <dbl>, 3/4/20 <dbl>, 3/5/20 <dbl>, 3/6/20 <dbl>,
…
Data loading

Similar procedure for datasets 01 to 03.

data01_raw <- data01_raw %>%
  select('Country/Region', '4/29/21') %>% 
  rename('Cases' = '4/29/21') %>% 
  rename('Country' = 'Country/Region')
data01_raw

## # A tibble: 275 x 2
##    Country               Cases
##    <chr>                 <dbl>
##  1 Afghanistan           59576
##  2 Albania              130977
##  3 Algeria              121866
##  4 Andorra               13198
##  5 Angola                26431
##  6 Antigua and Barbuda    1232
##  7 Argentina           2954943
##  8 Armenia              215528
##  9 Australia               124
## 10 Australia              5477
## #  with 265 more rows
…
Data cleaning

Similar procedure for datasets 01 to 03.

data01 <- my_data %>%
  pluck(1) %>% 
  group_by(Country) %>% 
  summarise_all(sum)
data01

## # A tibble: 192 x 2
##    Country               Cases
##    <chr>                 <dbl>
##  1 Afghanistan           59576
##  2 Albania              130977
##  3 Algeria              121866
##  4 Andorra               13198
##  5 Angola                26431
##  6 Antigua and Barbuda    1232
##  7 Argentina           2954943
##  8 Armenia              215528
##  9 Australia             29798
## 10 Austria              616739
## #  with 182 more rows
…
Data cleaning

Before the final join some of the names had to be fixed so both data_covid and data_gapminder agreed in the country names.

data_full <- data_covid %>% 
  full_join(data_continent, by="Country") %>% 
  full_join(data_gapminder, by="Country")
data_full

## # A tibble: 248 x 23
##    Country            Cases Deaths Population continent UrbanPop LifeExp Smoking
##    <chr>              <dbl>  <dbl>      <dbl> <chr>        <dbl>   <dbl>   <dbl>
##  1 Afghanistan       5.96e4   2618   38928341 Asia         0.258    63.4   0.247
##  2 Albania           1.31e5   2389    2877800 Europe       0.612    78.2   0.224
##  3 Algeria           1.22e5   3244   43851043 Africa       0.732    77.7   0.152
##  4 Andorra           1.32e4    125      77265 Europe       0.88     82.7   0.329
##  5 Angola            2.64e4    594   32866268 Africa       0.662    64.2   0.247
##  6 Antigua and Barb 1.23e3     32      97928 Americas     0.245    77     0.247
##  7 Argentina         2.95e6  63508   45195777 Americas     0.92     76.7   0.3  
##  8 Armenia           2.16e5   4087    2963234 Asia         0.632    75.6   0.296
##  9 Australia         2.98e4    910   25459700 Oceania      0.861    82.4   0.248
## 10 Austria           6.17e5  10179    9006400 Europe       0.585    81.8   0.433
## #  with 238 more rows, and 15 more variables: AlcConsump <dbl>, BMI_m <dbl>,
## #   BMI_f <dbl>, SBP_m <dbl>, SBP_f <dbl>, cholesterol_m <dbl>,
## #   cholesterol_f <dbl>, GovtHealthUSD_pp <dbl>, TotHealthUSD_pp <dbl>,
## #   LandSqkm <dbl>, DemScore <dbl>, CPI <dbl>, WomanInParlia <dbl>,
## #   Income_pp <dbl>, BasicSaniAcc <dbl>
…
